<?xml version="1.0" encoding="UTF-8" standalone="no"?>
<svg
   height="128"
   viewBox="0 0 128 128"
   width="128"
   version="1.1"
   id="svg860"
   sodipodi:docname="template.svg"
   inkscape:version="1.2.2 (b0a8486541, 2022-12-01)"
   inkscape:export-filename="symbolic.svg"
   inkscape:export-xdpi="96"
   inkscape:export-ydpi="96"
   xml:space="preserve"
   xmlns:inkscape="http://www.inkscape.org/namespaces/inkscape"
   xmlns:sodipodi="http://sodipodi.sourceforge.net/DTD/sodipodi-0.dtd"
   xmlns:xlink="http://www.w3.org/1999/xlink"
   xmlns="http://www.w3.org/2000/svg"
   xmlns:svg="http://www.w3.org/2000/svg"><defs
     id="defs864"><linearGradient
       inkscape:collect="always"
       id="linearGradient31427"><stop
         style="stop-color:#a51d2d;stop-opacity:1;"
         offset="0"
         id="stop31423" /><stop
         style="stop-color:#ed333b;stop-opacity:1;"
         offset="0.03"
         id="stop31431" /><stop
         style="stop-color:#a51d2d;stop-opacity:1;"
         offset="0.08"
         id="stop31435" /><stop
         style="stop-color:#a51d2d;stop-opacity:1;"
         offset="0.92000002"
         id="stop31437" /><stop
         style="stop-color:#ed333b;stop-opacity:1;"
         offset="0.97000003"
         id="stop31433" /><stop
         style="stop-color:#a51d2d;stop-opacity:1;"
         offset="1"
         id="stop31425" /></linearGradient><linearGradient
       inkscape:collect="always"
       id="linearGradient29531"><stop
         style="stop-color:#c0bfbc;stop-opacity:1;"
         offset="0"
         id="stop29527" /><stop
         style="stop-color:#f6f5f4;stop-opacity:1;"
         offset="0.5"
         id="stop29535" /><stop
         style="stop-color:#c0bfbc;stop-opacity:1;"
         offset="1"
         id="stop29529" /></linearGradient><linearGradient
       inkscape:collect="always"
       xlink:href="#linearGradient29531"
       id="linearGradient29533"
       x1="98"
       y1="64"
       x2="102"
       y2="64"
       gradientUnits="userSpaceOnUse" /><linearGradient
       inkscape:collect="always"
       xlink:href="#linearGradient31427"
       id="linearGradient31429"
       x1="12"
       y1="64"
       x2="116"
       y2="64"
       gradientUnits="userSpaceOnUse" /></defs><sodipodi:namedview
     id="namedview862"
     pagecolor="#ffffff"
     bordercolor="#ff0505"
     borderopacity="1"
     inkscape:showpageshadow="0"
     inkscape:pageopacity="0"
     inkscape:pagecheckerboard="false"
     inkscape:deskcolor="#ffffff"
     showgrid="true"
     inkscape:zoom="4"
     inkscape:cx="108"
     inkscape:cy="56.250001"
     inkscape:window-width="1872"
     inkscape:window-height="953"
     inkscape:window-x="24"
     inkscape:window-y="56"
     inkscape:window-maximized="0"
     inkscape:current-layer="svg860"><inkscape:grid
       type="xygrid"
       id="grid3085"
       empspacing="8"
       empcolor="#737373"
       empopacity="0.17254902"
       color="#3e3e3e"
       opacity="0.14901961"
       visible="true"
       enabled="true" /></sodipodi:namedview><linearGradient
     id="a"
     gradientUnits="userSpaceOnUse"
     x1="4"
     x2="124"
     y1="66.000977"
     y2="66.000977"><stop
       offset="0"
       stop-color="#e6a50a"
       id="stop827" /><stop
       offset="0.0333333"
       stop-color="#f5c211"
       id="stop829" /><stop
       offset="0.0666667"
       stop-color="#e6a50a"
       id="stop831" /><stop
       offset="0.933333"
       stop-color="#e6a50a"
       id="stop833" /><stop
       offset="0.966667"
       stop-color="#f5c211"
       id="stop835" /><stop
       offset="1"
       stop-color="#e6a50a"
       id="stop837" /></linearGradient><g
     id="g33964"><rect
       style="fill:url(#linearGradient31429);fill-opacity:1;stroke-width:3.99874;stroke-linecap:round;stroke-linejoin:round"
       id="rect26825"
       width="104"
       height="104"
       x="12"
       y="12"
       ry="7" /><rect
       style="fill:#e01b24;fill-opacity:1;stroke-width:3.99874;stroke-linecap:round;stroke-linejoin:round"
       id="rect26823"
       width="104"
       height="96"
       x="12"
       y="12"
       ry="7" /><circle
       style="fill:#241f31;fill-opacity:1;stroke-width:3.99874;stroke-linecap:round;stroke-linejoin:round"
       id="circle27285"
       cx="56"
       cy="61"
       r="36" /><circle
       style="fill:#3d3846;fill-opacity:1;stroke-width:3.99874;stroke-linecap:round;stroke-linejoin:round"
       id="path27096"
       cx="56"
       cy="59"
       r="36" /><circle
       style="fill:#e01b24;fill-opacity:1;stroke-width:3.99874;stroke-linecap:round;stroke-linejoin:round"
       id="path27492"
       cx="56"
       cy="59"
       r="12" /><g
       id="g31960"
       inkscape:transform-center-x="2.4748737"
       inkscape:transform-center-y="32.173358"
       style="fill:#a51d2d;fill-opacity:1"
       transform="translate(0,2)"><path
         style="fill:#a51d2d;fill-opacity:1;stroke-width:3.99874;stroke-linecap:round;stroke-linejoin:round"
         d="m 98,81 -1,5 4,1 1,-6 z"
         id="path31952"
         sodipodi:nodetypes="ccccc" /><rect
         style="fill:#a51d2d;fill-opacity:1;stroke-width:3.99874;stroke-linecap:round;stroke-linejoin:round"
         id="rect31954"
         width="4"
         height="34"
         x="98"
         y="47"
         ry="0" /><rect
         style="fill:#3d3846;fill-opacity:1;stroke-width:3.99874;stroke-linecap:round;stroke-linejoin:round"
         id="rect31956"
         width="8"
         height="24"
         x="96"
         y="24"
         ry="1" /><rect
         style="fill:#a51d2d;fill-opacity:1;stroke-width:3.99874;stroke-linecap:round;stroke-linejoin:round"
         id="rect31958"
         width="6"
         height="13"
         x="125.73651"
         y="23.674337"
         ry="1"
         transform="rotate(30)" /></g><g
       id="g31350"
       inkscape:transform-center-x="2.4748737"
       inkscape:transform-center-y="32.173358"><path
         style="fill:#77767b;fill-opacity:1;stroke-width:3.99874;stroke-linecap:round;stroke-linejoin:round"
         d="m 98,81 -1,5 4,1 1,-6 z"
         id="path29397"
         sodipodi:nodetypes="ccccc" /><rect
         style="fill:#77767b;fill-opacity:1;stroke-width:3.99874;stroke-linecap:round;stroke-linejoin:round"
         id="rect27744"
         width="8"
         height="24"
         x="96"
         y="24"
         ry="1" /><path
         id="rect27748"
         style="fill:url(#linearGradient29533);stroke-width:3.99874;stroke-linecap:round;stroke-linejoin:round"
         d="m 98,49 c 0,-1 4,-1 4,0 v 32 h -4 z"
         sodipodi:nodetypes="ccccc" /><rect
         style="fill:#c0bfbc;fill-opacity:1;stroke-width:3.99874;stroke-linecap:round;stroke-linejoin:round"
         id="rect29263"
         width="6"
         height="13"
         x="125.73651"
         y="23.674337"
         ry="1"
         transform="rotate(30)" /></g><path
       style="fill:#ffffff;fill-opacity:1;stroke-width:3.99874;stroke-linecap:round;stroke-linejoin:round"
       d="M 52,53 V 65 L 62,59 Z"
       id="path31065"
       sodipodi:nodetypes="cccc" /></g></svg>
